{
"name": [0,1,2,3,4,5,6,7,8,9,10,11,12,13,14,15],
"data": ["levels/0.pop","levels/1.pop","levels/2.pop","levels/3.pop","levels/4.pop","levels/5.pop","levels/6.pop","levels/7.pop","levels/8.pop","levels/9.pop","levels/10.pop","levels/11.pop","levels/12.pop","levels/13.pop","levels/14.pop","levels/15.pop"], 
"numVertices": "53385",
"xmin": -66.3542,
"ymin": -6.8193,
"zmin": -72.1441,
"xmax": 43.7655,
"ymax": 5.6396,
"zmax": 84.7839,
"factor": 65535,
"levelCount": 16,
"levels": [63,312,525,921,1539,2502,4860,10107,18582,28491,38418,46278,50475,52317,53067,53385],
"alpha": 0.5
}
