{
"name": [0,1,2,3,4,5,6,7,8,9,10,11,12,13,14,15],
"data": ["levels/0.pop","levels/1.pop","levels/2.pop","levels/3.pop","levels/4.pop","levels/5.pop","levels/6.pop","levels/7.pop","levels/8.pop","levels/9.pop","levels/10.pop","levels/11.pop","levels/12.pop","levels/13.pop","levels/14.pop","levels/15.pop"], 
"numVertices": "2553612",
"xmin": -56.5159,
"ymin": -9.63605,
"zmin": -64.0772,
"xmax": 56.5159,
"ymax": 9.57709,
"zmax": 64.1,
"factor": 65535,
"levelCount": 16,
"levels": [30,150,606,2724,10683,43299,152637,444486,1172592,2015265,2408904,2540658,2550420,2552406,2552910,2553612],
"alpha": 1
}
