{
"name": [0,1,2,3,4,5,6,7,8,9,10,11,12,13,14,15],
"data": ["levels/0.pop","levels/1.pop","levels/2.pop","levels/3.pop","levels/4.pop","levels/5.pop","levels/6.pop","levels/7.pop","levels/8.pop","levels/9.pop","levels/10.pop","levels/11.pop","levels/12.pop","levels/13.pop","levels/14.pop","levels/15.pop"],
"numVertices": "19413",
"xmin": -136.456,
"ymin": -15.6093,
"zmin": -120.947,
"xmax": 70.9539,
"ymax": 9.3634,
"zmax": 605.919,
"factor": 65535,
"levelCount": 16,
"levels": [48,300,1395,5055,11040,15597,17634,18441,18957,19218,19347,19395,19404,19407,19413,19413],
"alpha": 0.5
}
